{
  "publisher": "International Business Times",
  "title": "Hey, Let's Give A Break To Our Mother Earth",
  "url": "https://www.ibtimes.com/hey-lets-give-break-our-mother-earth-3217337",
  "published_at": "2021-06-04T12:13:30"
}