{
  "publisher": "International Business Times",
  "title": "International Experts Deployed For Sri Lanka Oil Spill",
  "url": "https://www.ibtimes.com/international-experts-deployed-sri-lanka-oil-spill-3217019",
  "published_at": "2021-06-04T00:24:10"
}