{
  "publisher": "International Business Times",
  "title": "Like Mother Like Daughter: Nicaragua's Chamorro A Threat To Ortega",
  "url": "https://www.ibtimes.com/mother-daughter-nicaraguas-chamorro-threat-ortega-3216812",
  "published_at": "2021-06-03T21:44:13"
}