{
  "publisher": "International Business Times",
  "title": "Sotheby's Sells First NFT That Sparked A Craze",
  "url": "https://www.ibtimes.com/sothebys-sells-first-nft-sparked-craze-3217685",
  "published_at": "2021-06-04T17:53:54"
}