{
  "publisher": "International Business Times",
  "title": "Hong Kongers Mourn Tiananmen Dead Under Security Law's Shadow",
  "url": "https://www.ibtimes.com/hong-kongers-mourn-tiananmen-dead-under-security-laws-shadow-3216668",
  "published_at": "2021-06-03T17:00:55"
}