{
  "publisher": "International Business Times",
  "title": "AMC Says It Has Completed Share Offering, Raising $587.4 Mn",
  "url": "https://www.ibtimes.com/amc-says-it-has-completed-share-offering-raising-5874-mn-3216554",
  "published_at": "2021-06-03T13:46:57"
}