{
  "publisher": "International Business Times",
  "title": "Famed OJ Simpson Lawyer Bailey Dies Aged 87",
  "url": "https://www.ibtimes.com/famed-oj-simpson-lawyer-bailey-dies-aged-87-3216701",
  "published_at": "2021-06-03T18:35:48"
}