{
  "publisher": "International Business Times",
  "title": "What Is Twitter Blue? Twitter Releases New Subscription Service",
  "url": "https://www.ibtimes.com/what-twitter-blue-twitter-releases-new-subscription-service-3216491",
  "published_at": "2021-06-03T12:56:09"
}