{
  "publisher": "International Business Times",
  "title": "Murals And Memories: How Bosnian Serbs Revere War Criminal Mladic",
  "url": "https://www.ibtimes.com/murals-memories-how-bosnian-serbs-revere-war-criminal-mladic-3217268",
  "published_at": "2021-06-04T03:24:38"
}