{
  "publisher": "International Business Times",
  "title": "Target Sale: Retailer Challenges Amazon And Walmart With 3 Days Of Deals",
  "url": "https://www.ibtimes.com/target-sale-retailer-challenges-amazon-walmart-3-days-deals-3217565",
  "published_at": "2021-06-04T10:52:32"
}