{
  "publisher": "International Business Times",
  "title": "Japan Donates More Than 1 Million Covid-19 Jabs To Taiwan",
  "url": "https://www.ibtimes.com/japan-donates-more-1-million-covid-19-jabs-taiwan-3216947",
  "published_at": "2021-06-04T05:11:03"
}