{
  "publisher": "International Business Times",
  "title": "Pedro Castillo, Rural Teacher With A Shot At Peru's Presidency",
  "url": "https://www.ibtimes.com/pedro-castillo-rural-teacher-shot-perus-presidency-3216854",
  "published_at": "2021-06-03T22:08:01"
}