{
  "publisher": "International Business Times",
  "title": "Europe Condemns 'Disturbing' Interview With Jailed Belarus Activist",
  "url": "https://www.ibtimes.com/europe-condemns-disturbing-interview-jailed-belarus-activist-3217382",
  "published_at": "2021-06-04T11:43:16"
}