{
  "publisher": "International Business Times",
  "title": "Australian Police Employee Found Guilty Of Sexually Assaulting 13-Year-Old Girl In Elevator",
  "url": "https://www.ibtimes.com/australian-police-employee-found-guilty-sexually-assaulting-13-year-old-girl-elevator-3217364",
  "published_at": "2021-06-04T08:31:05"
}