{
  "publisher": "International Business Times",
  "title": "Hong Kong Police Detain Democracy Leader On Tiananmen Anniversary: AFP",
  "url": "https://www.ibtimes.com/hong-kong-police-detain-democracy-leader-tiananmen-anniversary-afp-3216770",
  "published_at": "2021-06-03T20:41:18"
}