{
  "publisher": "International Business Times",
  "title": "Stars And Award-winners Lined Up For Reborn Cannes",
  "url": "https://www.ibtimes.com/stars-award-winners-lined-reborn-cannes-3216227",
  "published_at": "2021-06-03T07:46:55"
}