{
  "publisher": "International Business Times",
  "title": "Japan Births Hit New Record Low In Pandemic",
  "url": "https://www.ibtimes.com/japan-births-hit-new-record-low-pandemic-3217343",
  "published_at": "2021-06-04T05:05:08"
}