{
  "publisher": "International Business Times",
  "title": "Hong Kong Democracy Vigil Leader Released On Bail",
  "url": "https://www.ibtimes.com/hong-kong-democracy-vigil-leader-released-bail-3217973",
  "published_at": "2021-06-05T06:40:36"
}