{
  "publisher": "International Business Times",
  "title": "Miami, Looking To Be Next Crypto Hotspot, Hosts Huge Bitcoin Event",
  "url": "https://www.ibtimes.com/miami-looking-be-next-crypto-hotspot-hosts-huge-bitcoin-event-3217814",
  "published_at": "2021-06-04T22:52:58"
}