{
  "publisher": "International Business Times",
  "title": "Political Dynasty Heiress Fujimori Aiming To Make History",
  "url": "https://www.ibtimes.com/political-dynasty-heiress-fujimori-aiming-make-history-3216860",
  "published_at": "2021-06-03T21:58:50"
}