{
  "publisher": "International Business Times",
  "title": "Macron Sees 'Difficult' Choices, Holds Back On Re-election Bid",
  "url": "https://www.ibtimes.com/macron-sees-difficult-choices-holds-back-re-election-bid-3216431",
  "published_at": "2021-06-03T10:37:24"
}