{
  "publisher": "International Business Times",
  "title": "Hong Kong Park Empty On Tiananmen Anniversary But Protests Flicker",
  "url": "https://www.ibtimes.com/hong-kong-park-empty-tiananmen-anniversary-protests-flicker-3217523",
  "published_at": "2021-06-04T09:54:24"
}