{
  "publisher": "International Business Times",
  "title": "No Evidence Mystery UFOs Are Alien Spacecraft, Report Finds: NYTimes",
  "url": "https://www.ibtimes.com/no-evidence-mystery-ufos-are-alien-spacecraft-report-finds-nytimes-3217088",
  "published_at": "2021-06-04T01:10:29"
}