{
  "publisher": "International Business Times",
  "title": "Nigeria 'Indefinitely' Suspends Twitter",
  "url": "https://www.ibtimes.com/nigeria-indefinitely-suspends-twitter-3217673",
  "published_at": "2021-06-04T16:15:28"
}