{
  "publisher": "International Business Times",
  "title": "Indonesian Women Take On Plastic Waste Brick By Brick",
  "url": "https://www.ibtimes.com/indonesian-women-take-plastic-waste-brick-brick-3217832",
  "published_at": "2021-06-04T22:25:46"
}