{
  "publisher": "International Business Times",
  "title": "France Halts Joint Military Operations With Mali Over Coup",
  "url": "https://www.ibtimes.com/france-halts-joint-military-operations-mali-over-coup-3216644",
  "published_at": "2021-06-03T20:45:37"
}