{
    "publisher": "China Daily Information Co",
    "title": "Music festival opens up cultural dialogues",
    "url": "http://www.chinadaily.com.cn/a/202106/04/WS60b9d469a31024ad0bac3b30.html",
    "publishedAt": "2021-06-04T15:21:00"
}