{
    "publisher": "China Daily Information Co",
    "title": "Beijing Happy Valley theme park lights up the night",
    "url": "http://www.chinadaily.com.cn/a/202106/05/WS60bb05d0a31024ad0bac3d20.html",
    "publishedAt": "2021-06-05T13:04:00"
}