{
    "publisher": "China Daily Information Co",
    "title": "Wheel masters rev up R&D efforts in China",
    "url": "http://www.chinadaily.com.cn/a/202106/05/WS60bab898a31024ad0bac3c4b.html",
    "publishedAt": "2021-06-05T07:34:00"
}