{
    "publisher": "China Daily Information Co",
    "title": "Xinjiang sees record new energy power generation efficiency",
    "url": "http://www.chinadaily.com.cn/a/202106/06/WS60bc1096a31024ad0bac3dd5.html",
    "publishedAt": "2021-06-06T08:02:00"
}