{
    "publisher": "China Daily Information Co",
    "title": "Crocodile lizards, as old as the dinosaur, see numbers grow",
    "url": "http://www.chinadaily.com.cn/a/202106/03/WS60b823f6a31024ad0bac3403.html",
    "publishedAt": "2021-06-03T08:36:00"
}