{
    "publisher": "China Daily Information Co",
    "title": "Tianjin to hold 600 activities over three-months to boost international consumption",
    "url": "http://www.chinadaily.com.cn/a/202106/04/WS60b9e9f3a31024ad0bac3bbb.html",
    "publishedAt": "2021-06-04T16:52:00"
}