{
    "publisher": "China Daily Information Co",
    "title": "Lingerie maker La Perla to expand its footprints in China",
    "url": "http://www.chinadaily.com.cn/a/202106/03/WS60b82bdda31024ad0bac346f.html",
    "publishedAt": "2021-06-03T09:09:00"
}