{
    "publisher": "China Daily Information Co",
    "title": "Funds guru has his finger on the pulse",
    "url": "http://www.chinadaily.com.cn/a/202106/06/WS60bc0285a31024ad0bac3da5.html",
    "publishedAt": "2021-06-06T07:02:00"
}